Quick learning curve estimation
…
library(tidyverse)
#> -- Attaching packages -------------------------------------------------------------- tidyverse 1.3.0 --
#> v ggplot2 3.3.2     v purrr   0.3.4
#> v tibble  3.0.3     v dplyr   1.0.2
#> v tidyr   1.1.2     v stringr 1.4.0
#> v readr   1.3.1     v forcats 0.5.0
#> -- Conflicts ----------------------------------------------------------------- tidyverse_conflicts() --
#> x dplyr::filter() masks stats::filter()
#> x dplyr::lag()    masks stats::lag()
# devtools::install_github("schmettow/asymptote")
library(asymptote)

Laptrain
#> # A tibble: 226 x 4
#>      Obs Part  trial Duration
#>    <int> <chr> <int>    <dbl>
#>  1     1 01        1     9.24
#>  2     2 01        2     4.62
#>  3     3 01        3     5.59
#>  4     4 01        4     3.23
#>  5     5 01        5     3.19
#>  6     6 01        6     3.85
#>  7     7 01        7     2.77
#>  8     8 01        8     2.78
#>  9     9 01        9     2.75
#> 10    10 01       10     2.07
#> # ... with 216 more rows
…
